Make feature extractor — make_extract_features • demspacesR
…
# assume that the input consists entirely of features, and no NAs
train_x <- states %>%
  filter(year < 2010) %>%
  select(-starts_with("dv_"), -gwcode, -year) %>%
  filter(complete.cases(.))

test_x <- states %>%
  filter(year > 2009) %>%
  select(-starts_with("dv_"), -gwcode, -year) %>%
  filter(complete.cases(.))

featx <- make_extract_features(train_x)
featx(train_x)

#> # A tibble: 6,122 x 5
#>      PC1    PC2     PC3    PC4      PC5
#>    <dbl>  <dbl>   <dbl>  <dbl>    <dbl>
#>  1 -2.85 -0.220  0.0793 -0.627  0.0898 
#>  2 -2.72  0.741  0.275  -0.773 -0.161  
#>  3 -2.79  0.311  1.20    1.62   0.190  
#>  4 -2.88  0.267  1.28    1.58   0.0265 
#>  5 -2.93  0.366 -0.181  -0.456  0.0392 
#>  6 -2.90  0.613  1.15    1.65  -0.101  
#>  7 -2.99  0.413 -0.218  -0.432 -0.0317 
#>  8 -2.94  0.709 -0.188  -0.462 -0.00251
#>  9 -2.97  0.560 -0.176  -0.464  0.0605 
#> 10 -2.98  0.568 -0.170  -0.469  0.0583 
#> # … with 6,112 more rows
…
